module cloud-maque-common

go 1.17

require github.com/spf13/viper v1.15.0

require (
	github.com/gin-contrib/sse v0.1.0 // indirect
	github.com/go-playground/locales v0.13.0 // indirect
	github.com/go-playground/universal-translator v0.17.0 // indirect
	github.com/go-playground/validator/v10 v10.2.0 // indirect
	github.com/leodido/go-urn v1.2.0 // indirect
	github.com/ugorji/go/codec v1.1.7 // indirect
	gopkg.in/yaml.v2 v2.4.0 // indirect
)

require (
	cloud.google.com/go v0.105.0 // indirect
	cloud.google.com/go/compute v1.14.0 // indirect
	cloud.google.com/go/compute/metadata v0.2.3 // indirect
	cloud.google.com/go/firestore v1.9.0 // indirect
	cloud.google.com/go/longrunning v0.3.0 // indirect
	github.com/armon/go-metrics v0.4.0 // indirect
	github.com/coreos/go-semver v0.3.0 // indirect
	github.com/coreos/go-systemd/v22 v22.3.2 // indirect
	github.com/fatih/color v1.13.0 // indirect
	github.com/fsnotify/fsnotify v1.6.0 // indirect
	github.com/gin-gonic/gin v1.6.3
	github.com/gogo/protobuf v1.3.2 // indirect
	github.com/golang/groupcache v0.0.0-20210331224755-41bb18bfe9da // indirect
	github.com/golang/protobuf v1.5.2 // indirect
	github.com/google/go-cmp v0.5.9 // indirect
	github.com/googleapis/enterprise-certificate-proxy v0.2.1 // indirect
	github.com/googleapis/gax-go/v2 v2.7.0 // indirect
	github.com/hashicorp/consul/api v1.18.0
	github.com/hashicorp/go-cleanhttp v0.5.2 // indirect
	github.com/hashicorp/go-hclog v1.2.0 // indirect
	github.com/hashicorp/go-immutable-radix v1.3.1 // indirect
	github.com/hashicorp/go-rootcerts v1.0.2 // indirect
	github.com/hashicorp/golang-lru v0.5.4 // indirect
	github.com/hashicorp/hcl v1.0.0 // indirect
	github.com/hashicorp/serf v0.10.1 // indirect
	github.com/json-iterator/go v1.1.12 // indirect
	github.com/magiconair/properties v1.8.7 // indirect
	github.com/mattn/go-colorable v0.1.12 // indirect
	github.com/mattn/go-isatty v0.0.14 // indirect
	github.com/mitchellh/go-homedir v1.1.0 // indirect
	github.com/mitchellh/mapstructure v1.5.0 // indirect
	github.com/modern-go/concurrent v0.0.0-20180306012644-bacd9c7ef1dd // indirect
	github.com/modern-go/reflect2 v1.0.2 // indirect
	github.com/pelletier/go-toml/v2 v2.0.6 // indirect
	github.com/pkg/errors v0.9.1 // indirect
	github.com/sagikazarmark/crypt v0.9.0 // indirect
	github.com/spf13/afero v1.9.3 // indirect
	github.com/spf13/cast v1.5.0 // indirect
	github.com/spf13/jwalterweatherman v1.1.0 // indirect
	github.com/spf13/pflag v1.0.5 // indirect
	github.com/subosito/gotenv v1.4.2 // indirect
	github.com/wenzhenxi/gorsa v0.0.0-20191231021121-58a13482fb09
	go.etcd.io/etcd/api/v3 v3.5.6 // indirect
	go.etcd.io/etcd/client/pkg/v3 v3.5.6 // indirect
	go.etcd.io/etcd/client/v2 v2.305.6 // indirect
	go.etcd.io/etcd/client/v3 v3.5.6 // indirect
	go.opencensus.io v0.24.0 // indirect
	go.uber.org/atomic v1.9.0 // indirect
	go.uber.org/multierr v1.8.0 // indirect
	go.uber.org/zap v1.21.0 // indirect
	golang.org/x/crypto v0.0.0-20220525230936-793ad666bf5e // indirect
	golang.org/x/net v0.4.0 // indirect
	golang.org/x/oauth2 v0.0.0-20221014153046-6fdb5e3db783 // indirect
	golang.org/x/sync v0.1.0 // indirect
	golang.org/x/sys v0.3.0 // indirect
	golang.org/x/text v0.5.0 // indirect
	golang.org/x/time v0.1.0 // indirect
	golang.org/x/xerrors v0.0.0-20220907171357-04be3eba64a2 // indirect
	google.golang.org/api v0.107.0 // indirect
	google.golang.org/appengine v1.6.7 // indirect
	google.golang.org/genproto v0.0.0-20221227171554-f9683d7f8bef // indirect
	google.golang.org/grpc v1.52.0 // indirect
	google.golang.org/protobuf v1.28.1 // indirect
	gopkg.in/ini.v1 v1.67.0 // indirect
	gopkg.in/yaml.v3 v3.0.1 // indirect
)
